Automated data download
…
<ERDDAP griddap> ncdc_oisst_v2_avhrr_prelim_by_time_zlev_lat_lon
   Path: [/var/folders/7f/kk27hkgx2x55ydsp9pndzfx40000gn/T//Rtmpc04Lkz/R/rerddap/26b4753e7f55080dd491018532d8446a.nc]
   Last updated: [2023-04-14 12:58:42]
   File size:    [0.24 mb]
   Dimensions (dims/vars):   [4 X 1]
   Dim names: time, depth, latitude, longitude
   Variable names: Daily sea surface temperature anomalies
   data.frame (rows/columns):   [57915 X 5]
# A tibble: 57,915 × 5
   longitude  latitude     depth time                  anom
   <dbl[1d]> <dbl[1d]> <dbl[1d]> <chr>                <dbl>
 1      261.      17.6         0 2023-03-29T12:00:00Z   NaN
 2      261.      17.6         0 2023-03-29T12:00:00Z   NaN
 3      262.      17.6         0 2023-03-29T12:00:00Z   NaN
 4      262.      17.6         0 2023-03-29T12:00:00Z   NaN
 5      262.      17.6         0 2023-03-29T12:00:00Z   NaN
 6      262.      17.6         0 2023-03-29T12:00:00Z   NaN
 7      263.      17.6         0 2023-03-29T12:00:00Z   NaN
 8      263.      17.6         0 2023-03-29T12:00:00Z   NaN
 9      263.      17.6         0 2023-03-29T12:00:00Z   NaN
10      263.      17.6         0 2023-03-29T12:00:00Z   NaN
# ℹ 57,905 more rows
…
